{
  "pluginsFile": "tests/e2e/plugins/index.js",
  "env": {
    "VUE_APP_ORSEGUPSID_URI": "http://orsegups-id-homol.us-east-1.elasticbeanstalk.com",
    "VUE_APP_GATEWAY_URI": "http://localhost:3000"
  }
}
